Time Series Forecasting with Rice Production in INDIA Dataset
…
Subham Das

2022-11-05

Taking the Rice-Production Dataset

library(readxl)

## Warning: package 'readxl' was built under R version 4.1.3

Book1 <- read_excel("D:\\DATASETS\\Rice_prod.xlsx")
Book1

## # A tibble: 71 x 2
##     Year `Rice production`
##    <dbl>             <dbl>
##  1  1950               206
##  2  1951               213
##  3  1952               229
##  4  1953               282
##  5  1954               252
##  6  1955               276
##  7  1956               290
##  8  1957               255
##  9  1958               309
## 10  1959               317
## # ... with 61 more rows
…
